{
  "type": "service_account",
  "project_id": "internal-vem",
  "private_key_id": "2127382de8be121b5634ff4e00c8d8d8fe2c7013",
  "private_key": "-----BEGIN PRIVATE KEY-----\nMIIEvwIBADANBgkqhkiG9w0BAQEFAASCBKkwggSlAgEAAoIBAQDY/VhDf4cz5EVy\nEg0JvhXZ3eQNH0HdiynqZ1hpyJsj80pvDsThYVoc3GU+/vQxwuRD1QUQBTxADvtH\nIqC3L7633i6J5dI6rNaViwFu748jwQIqc8s2HPSvxAeUko1koGkdKkqhDqOeuHgZ\nldGYKzB6+JWOzAHEPTJkfvonM46O0hOLD9JxbKXRaQZSFJOge0GAv4DuuKUv3n7l\nWY5v4RmwczUPMgBs3ecdRFsqH0Ircaeb4bGnkUxF3Xd+ipJOAj4Faswkohs8BcU/\n/dDg0ino2u5vtA55plBs9PqgB3CJ5Onu0dRhcg6SZrxb4zzyR0yvn464792Yw5fZ\ndQ/hh2Q5AgMBAAECggEAA4vIWHoKDJgLZnzTB7i6hK/ynSBIpEU07ya3NCtaFbFR\nIxV7tC8yGMylPu1Nsk58Cnu9tHBRdr6H7rarJ7M5C6ou2oQN9nWCoDkAUf7KOQxb\na7QuuvioKwMqGIx4kQ9qCFb7lzw1AlADbm+bWEBEb44Ga6n70WgqnafRkLhv+PeA\nMoRw03oLOhfGad2T6S+pNbgvOCEcQc57sKa0pyaMMaZkE2x8iixnNxbzZh2E/9hU\nlEWvimjL6qN8ni5l2WZDRz5VccYQZe4qkqy2fN1bz7i0mEhF0JEWRl1h3eNMt8N6\nsDgckeA3mtzFntYuw8a0jkKssNlqtN9uQkfloqBkcQKBgQD1pQBpKxaiF5+1oP9y\nZ8KNPrw6w0U2unLcdlUFFe3YGQPVXLguY90W3/YUAn0MW9IM0g5CiSe2H5HIysyc\nF/UteFhHKHB1q0lmrQEzi4rC15jZk2YgebC+zirQkRrQ2g7DcJ6O3mAIlW2tNEhH\noZX/+WHzAb1QK/E1hxUgJWYjBQKBgQDiIxleTJTzMzZuLZ5ixZykoUqE9ZcxhrFP\n78J96Y8FTxvHeuMAfPIjyCRUw4AAa6FqXEmPID57wJym5L08xetwR9i/wrSX8Sso\nl3XDcJCfdYbYoNFfVoLfb4s+jNpQEzm3p9bRWNAs7k1SLSZoTEcXaqcIHAq9o8QC\nx3Yvq2QqpQKBgQD06eR09u8EAcXM046dRHKnXQtTE2oo3NC0mo6+GVUghiBaVK2W\nIx9GNVomLSz8a3gMLErnb9RWMzepGPnUD9b11O0/VUR7LaJrasat280n4smU9O94\nJZxhQTFS7bnszdy2Y8zS6UiahlHpxRzjvmnN45kTLoLQMl+2XM5lVKR2+QKBgQCZ\nGKwnFG/PCr/x7b6KHkFDj9LUmzRGGmtWs/qXphTmwj0LWx3uCakhInG+VTEGl9eL\nG3nNhUXoIGmt77RSPah8tpd+k8ISD/tpGslmjIHNAxNM++tjwT0PKgQ6T7/JcIql\n1OJxjtA5awg790dGW0XSC6mTqvB2nTWpsAJKmZ1R5QKBgQDuzGPGvUco+lF4exvw\nkGljgkeVx5iS2g4Bkq5tCulZTU/wG+JRDmpBI+ogxbUSHK03KBUUpSUT3BK4foIh\noHkC0q5OLAuiHmx+c+t5clSeE+lD2h9x2m94vK5bQD60LKrcDuYOWX4ArIVEV6Td\ny/G1qZ2n0fJjMaEGgUyoK8w2gg==\n-----END PRIVATE KEY-----\n",
  "client_email": "firebase-adminsdk-7wv6z@internal-vem.iam.gserviceaccount.com",
  "client_id": "106687520693923089937",
  "auth_uri": "https://accounts.google.com/o/oauth2/auth",
  "token_uri": "https://oauth2.googleapis.com/token",
  "auth_provider_x509_cert_url": "https://www.googleapis.com/oauth2/v1/certs",
  "client_x509_cert_url": "https://www.googleapis.com/robot/v1/metadata/x509/firebase-adminsdk-7wv6z%40internal-vem.iam.gserviceaccount.com"
}
